{
  "git.addGBlameToVirtualText": true,
  "tsserver.enable": true,
  "tsserver.log": "verbose",
  "tsserver.trace.server": "verbose",
  "coc.preferences.formatOnSaveFiletypes": ["css", "js", "ts", "markdown"],
  "diagnostic-languageserver.formatFiletypes": {
    "python": ["black", "isort", "docformatter"]
  },
  "diagnostic-languageserver.formatters": {
    "black": {
      "command": "black",
      "args": ["-q", "-"]
    },
    "isort": {
      "command": "isort",
      "args": ["-q", "-"]
    },
    "docformatter": {
      "command": "docformatter",
      "args": ["-"]
    }
  },
  "rust-analyzer.procMacro.enable": true,
  "rust-analyzer.experimental.procAttrMacros": true,
  "jest.watchman": true,
  "jest.terminalPosition": "bottom",
  "javascript.suggestionActions.enabled": false,
  "diagnostic.messageTarget": "echo",
  "coc.preferences.jumpCommand": "vsplit",
  "suggest.enablePreview": true,
  "languageserver": {
    /* "clangd": {
     *   "command": "clangd",
     *   "rootPatterns": [
     *     "compile_flags.txt",
     *     "compile_commands.json",
     *     ".vim/",
     *     ".git/",
     *     ".hg/"
     *   ],
     *   "filetypes": ["c", "cpp", "objc", "objcpp"]
     * }, */
    "ccls": {
      "command": "ccls",
      "filetypes": ["c", "cc", "cpp", "c++", "objc", "objcpp"],
      "rootPatterns": [".ccls", "compile_commands.json", ".git/", ".hg/"],
      "initializationOptions": {
        "cache": {
          "directory": "/tmp/ccls"
        },
        "highlight": {
          "lsRanges": true
        },
        "client": {
          "snippetSupport": true
        },
        "clang": {
          "extraArgs": ["-std=c++17"]
        }
      }
    },
    "cmake": {
      "command": "cmake-language-server",
      "filetypes": ["cmake"],
      "rootPatterns": ["build/"],
      "initializationOptions": {
        "buildDirectory": "build"
      }
    },
    "lua": {
      "command": "lua-lsp",
      "filetypes": ["lua"]
    },
    "bash": {
      "command": "bash-language-server",
      "args": ["start"],
      "filetypes": ["sh"],
      "ignoredRootPaths": ["~"]
    },
    "efm": {
      "command": "efm-langserver",
      "args": [],
      "filetypes": ["vim"]
    },
    "golang": {
      "command": "gopls",
      "rootPatterns": ["go.mod", ".vim/", ".git/", ".hg/"],
      "filetypes": ["go"],
      "initializationOptions": {
        "usePlaceholders": true
      }
    }
  },
  "explorer.keyMappings.global": {
    "i": false,
    "h": false,
    "l": false,
    "e": "open",
    "s": "open:split",
    "v": "open:vsplit",
    "<cr>": ["expandable?", ["expanded?", "collapse", "expand"], "open"]
  },
  "explorer.width": 24,
  "clangd.path": "~/.config/coc/extensions/coc-clangd-data/install/15.0.3/clangd_15.0.3/bin/clangd"
}
